[
  {
    "id": 0,
    "title": "Pool Split",
    "status": "2",
    "price": "12600",
    "info1": "2 занятия",
    "info2": "2 человека",
    "info3": "60 минут",
    "info4": ""
  },
  {
    "id": 1,
    "title": "Pool Split",
    "status": "4",
    "price": "23800",
    "info1": "4 занятия",
    "info2": "2 человека",
    "info3": "60 минут",
    "info4": ""
  },
  {
    "id": 2,
    "title": "Pool Split",
    "status": "8",
    "price": "46480",
    "info1": "8 занятий",
    "info2": "2 человека",
    "info3": "60 минут",
    "info4": ""
  },
  {
    "id": 3,
    "title": "Pool Split",
    "status": "16",
    "price": "89600",
    "info1": "16 занятий",
    "info2": "2 человека",
    "info3": "60 минут",
    "info4": ""
  }
]
