<?xml version="1.0" encoding="UTF-8"?>
<svg width="200px" height="200px" viewBox="0 0 200 200" version="1.1" xmlns="http://www.w3.org/2000/svg" xmlns:xlink="http://www.w3.org/1999/xlink">
    <!-- Generator: Sketch 50.2 (55047) - http://www.bohemiancoding.com/sketch -->
    <title>key</title>
    <desc>Created with Sketch.</desc>
    <defs></defs>
    <g id="key" stroke="none" stroke-width="1" fill="none" fill-rule="evenodd">
        <path d="M34.8161974,50.8694518 C29.6323948,44.7389036 35.4714295,37.3985771 39.5539421,33.7910888 C55.4734668,19.723894 76.0718203,11.6717906 98.006888,11.6717906 C146.789211,11.6717906 186.335097,51.217677 186.335097,100 C186.335097,148.782323 146.789211,188.328209 98.006888,188.328209 C74.8399791,188.328209 53.1451554,179.343293 36.9394922,163.822649 C33.8414349,160.855548 29.8402046,153.596497 34.9201023,149.048248 C40,144.5 46.8944777,149.913821 49.8280159,152.604238 C62.7866915,164.488944 79.8264234,171.328209 98.006888,171.328209 C137.40037,171.328209 167.170195,137 169.335097,100 C171.5,63 137.40037,28.6717906 98.006888,28.6717906 C80.5500105,28.6717906 64.1583621,34.9753142 51.3741224,46.0374844 C47.8512974,49.085776 40,57 34.8161974,50.8694518 Z" id="Combined-Shape" fill="#BCBBBB" fill-rule="nonzero"></path>
        <path d="M103.51599,108.56988 L103.51599,119.544406 C103.51599,120.648976 102.62056,121.544406 101.51599,121.544406 L96.0803024,121.544406 C94.9757329,121.544406 94.0803024,120.648976 94.0803024,119.544406 L94.0803024,108.56988 L68.7334174,108.56988 C64.8840588,121.033204 53.2717578,130.088812 39.5444062,130.088812 C22.6751965,130.088812 9,116.413616 9,99.5444062 C9,82.6751965 22.6751965,69 39.5444062,69 C53.2717578,69 64.8840588,78.055608 68.7334174,90.5189322 L131.120492,90.5189322 C132.225061,90.5189322 133.120492,91.4143627 133.120492,92.5189322 L133.120492,104.057143 L133.120492,119.544406 C133.120492,120.648976 132.225061,121.544406 131.120492,121.544406 L121.120492,121.544406 C120.015922,121.544406 119.120492,120.648976 119.120492,119.544406 L119.120492,108.56988 L103.51599,108.56988 Z M39.5444062,118.088812 C49.7861989,118.088812 58.0888124,109.786199 58.0888124,99.5444062 C58.0888124,89.3026135 49.7861989,81 39.5444062,81 C29.3026135,81 21,89.3026135 21,99.5444062 C21,109.786199 29.3026135,118.088812 39.5444062,118.088812 Z" id="Combined-Shape" fill="#BCBBBB" fill-rule="nonzero"></path>
    </g>
</svg>