{
  "id": 0,
  "name": "Чай",
  "items": [
    {
      "id": 0,
      "item": "Чай листовой 0.3",
      "price": "250"
    }, 
    {
      "id": 1,
      "item": "Чай листовой 0.5",
      "price": "380"
    } 
  ]
}
